{
  "Name": "",
  "Metatype": "",
  "Archetype": "",
  "Karma": 0,
  "attributes": [
    {
      "name": "Body",
      "score": 1
    },
    {
      "name": "Agility",
      "score": 1
    },
    {
      "name": "Reaction",
      "score": 1
    },
    {
      "name": "Strength",
      "score": 1
    },
    {
      "name": "Willpower",
      "score": 1
    },
    {
      "name": "Logic",
      "score": 1
    },
    {
      "name": "Intuition",
      "score": 1
    },
    {
      "name": "Charisma",
      "score": 1
    },
    {
      "name": "Edge",
      "score": 1
    },
    {
      "name": "Initiative",
      "score": "1d6"
    }
  ],
  "skills": [
    {
      "name": "Diving",
      "score": 0
    },
    {
      "name": "Free-Fall",
      "score": 0
    },
    {
      "name": "Automatics",
      "score": 0
    },
    {
      "name": "Archery",
      "score": 0
    },
    {
      "name": "Clubs",
      "score": 0
    },
    {
      "name": "Blades",
      "score": 0
    },
    {
      "name": "Escape Artist",
      "score": 0
    },
    {
      "name": "Gunnery",
      "score": 0
    },
    {
      "name": "Heavy Weapons",
      "score": 0
    },
    {
      "name": "Gymnastics",
      "score": 0
    },
    {
      "name": "Locksmith",
      "score": 0
    },
    {
      "name": "Longarms",
      "score": 0
    },
    {
      "name": "Pistols",
      "score": 0
    },
    {
      "name": "Palming",
      "score": 0
    },
    {
      "name": "Sneaking",
      "score": 0
    },
    {
      "name": "Throwing Weapon",
      "score": 0
    },
    {
      "name": "Unarmed Combat",
      "score": 0
    },
    {
      "name": "Exotic Melee Weapon (Specific)",
      "score": 0
    },
    {
      "name": "Exotic Ranged Weapon (Specific)",
      "score": 0
    },
    {
      "name": "Pilot Aerospace",
      "score": 0
    },
    {
      "name": "Pilot Walker",
      "score": 0
    },
    {
      "name": "Pilot Aircraft",
      "score": 0
    },
    {
      "name": "Pilot Exotic Vehicle (Specific)",
      "score": 0
    },
    {
      "name": "Pilot Ground Craft",
      "score": 0
    },
    {
      "name": "Pilot Watercraft",
      "score": 0
    },
    {
      "name": "Running",
      "score": 0
    },
    {
      "name": "Swimming",
      "score": 0
    },
    {
      "name": "Astral Combat",
      "score": 0
    },
    {
      "name": "Survival",
      "score": 0
    },
    {
      "name": "Con",
      "score": 0
    },
    {
      "name": "Instruction",
      "score": 0
    },
    {
      "name": "Leadership",
      "score": 0
    },
    {
      "name": "Performance",
      "score": 0
    },
    {
      "name": "Animal Handling",
      "score": 0
    },
    {
      "name": "Etiquette",
      "score": 0
    },
    {
      "name": "Intimidation",
      "score": 0
    },
    {
      "name": "Negotiation",
      "score": 0
    },
    {
      "name": "Impersonation",
      "score": 0
    },
    {
      "name": "Academic Knowledge",
      "score": 0
    },
    {
      "name": "Arcana",
      "score": 0
    },
    {
      "name": "Automotive Mechanic",
      "score": 0
    },
    {
      "name": "Chemistry",
      "score": 0
    },
    {
      "name": "Cybertechnology",
      "score": 0
    },
    {
      "name": "Demolitions",
      "score": 0
    },
    {
      "name": "First Aid",
      "score": 0
    },
    {
      "name": "Hacking",
      "score": 0
    },
    {
      "name": "Medicine",
      "score": 0
    },
    {
      "name": "Professional Knowledge",
      "score": 0
    },
    {
      "name": "Forgery",
      "score": 0
    },
    {
      "name": "Aeronautics Mechanics",
      "score": 0
    },
    {
      "name": "Armorer",
      "score": 0
    },
    {
      "name": "Biotechnology",
      "score": 0
    },
    {
      "name": "Computer",
      "score": 0
    },
    {
      "name": "Cybercombat",
      "score": 0
    },
    {
      "name": "Electronic Warfare",
      "score": 0
    },
    {
      "name": "Industrial Mechanics",
      "score": 0
    },
    {
      "name": "Hardware",
      "score": 0
    },
    {
      "name": "Nautical Mechanics",
      "score": 0
    },
    {
      "name": "Software",
      "score": 0
    },
    {
      "name": "Artisan",
      "score": 0
    },
    {
      "name": "Disguise",
      "score": 0
    },
    {
      "name": "Language",
      "score": 0
    },
    {
      "name": "Perception",
      "score": 0
    },
    {
      "name": "Tracking",
      "score": 0
    },
    {
      "name": "Assensing",
      "score": 0
    },
    {
      "name": "Navigation",
      "score": 0
    },
    {
      "name": "Interests Knowledge",
      "score": 0
    },
    {
      "name": "Street Knowledge",
      "score": 0
    },
    {
      "name": "Alchemy",
      "score": 0
    },
    {
      "name": "Binding",
      "score": 0
    },
    {
      "name": "Ritual Spellcasting",
      "score": 0
    },
    {
      "name": "Summoning",
      "score": 0
    },
    {
      "name": "Disenchanting",
      "score": 0
    },
    {
      "name": "Banishing",
      "score": 0
    },
    {
      "name": "Counterspelling",
      "score": 0
    },
    {
      "name": "Spellcasting",
      "score": 0
    },
    {
      "name": "Enchanting",
      "score": 0
    },
    {
      "name": "Compiling",
      "score": 0
    },
    {
      "name": "Registering",
      "score": 0
    },
    {
      "name": "Decompiling",
      "score": 0
    }
  ]
}